{
    "home-hero-title": "¡Haz que tu dinero haga más dinero!",
    "home-hero-text": "OPUTRADE, la plataforma en donde además de aprender, puedes invertir en las marcas que más te gustan.",
    "learn-more": "Aprende más",
    "start-trading": "Comienza a operar",
    "home-forex-title": "¡Forex sí es para ti!",
    "home-forex-text": "Forex también es conocido como el mercado de las divisas, es la conversión de una divisa a otra. ¡Comprende un promedio diario de operaciones de 5 billones de dólares! La mayoría de las conversiones de divisas la realizan inversores o traders para obtener ganancias. Tú también puedes ser un trader profesional, ¡con nosotros puedes aprender a hacerlo rápidamente!",
    "home-tools-title": "Invierte inteligentemente y con las mejores herramientas",
    "home-tools-text": "Para ser un inversor no es necesario que seas un experto financiero, pero puede ser complicado y confuso. Pero no te preocupes, con nuestros cursos en la sección Academia, te proporcionamos las herramientas necesarias y de fácil uso para que puedas convertirte en un trader profesional y comenzar a ganar de inmediato.",
    "home-market-title": "Estamos en más de 200 mercados internacionales, no tenemos límites. En ellos operamos con:",
    "home-market-list-one": "Acciones",
    "home-market-list-two": "Índices",
    "home-market-list-three": "Divisas",
    "home-market-list-four": "Criptomonedas",
    "home-market-list-five": "Materias Primas o Commodities",
    "home-market-list-six": "Bonos",
    "home-market-list-seven": "ETFs",
    "home-why-title": "¿Por qué OPUTRADE?",
    "home-why-name-one": "Indicadores Económicos",
    "home-why-name-two": "Retiros Cómodos",
    "home-why-name-three": "Soporte 24/7",
    "home-why-name-four": "Plataforma inteligente",
    "home-why-text-one": "Contamos con poderosas herramientas con diversos tipos de indicadores económicos y publicaciones de datos, la importancia de usarlos en tus operaciones y su impacto en los activos relevantes.",
    "home-why-text-two": "Puedes retirar usando un amplio abanico de sistemas de pago disponibles.",
    "home-why-text-three": "Nuestros representantes altamente capacitados están listos para ayudarte en cualquier momento, en cualquier lugar y en tu idioma.",
    "home-why-text-four": "Nuestra plataforma de comercio social ofrece inversión en acciones, criptomonedas y CFDS entre otros, con diferentes activos subyacentes.",
    "home-steps-title-one": "Regístrate",
    "home-steps-text-one": "Abre en minutos una cuenta en nuestra plataforma.",
    "home-steps-title-two": "Verifica",
    "home-steps-text-two": "Carga fácilmente tus documentos para una confirmación rápida.",
    "home-steps-title-three": "Deposita",
    "home-steps-text-three": "Elige un método de pago y deposita para empezar a operar.",
    "home-steps-title-four": "Opera",
    "home-steps-text-four": "Con nuestra formación de trader profesional aprende, invierte y gana dinero.",
    "about-hero-title": "Nosotros",
    "about-hero-paragraph": "En OPUTRADE siempre encontrarás un servicio impecable. Nuestros expertos financieros, traders profesionales y gerentes de soporte, día a día se esfuerzan para que el trading de nuestros clientes sea más fácil y rentable. Además, a través de nuestra academia, hemos convertido a personas sin experiencia en traders profesionales.",
    "about-hero-subtitle": "En OPUTRADE, nuestra prioridad es el beneficio de nuestros clientes.",
    "about-item-title-one": "Misión",
    "about-item-text-one": "La misión principal de OPUTRADE, es fortalecer la confianza de nuestros clientes al estar con nosotros. Nuestro personal capacitado brinda el mejor asesoramiento a inversores y en la formación de traders, adaptándonos a sus necesidades.",
    "about-item-title-two": "Visión",
    "about-item-text-two": "Ser la empresa líder en la apertura de los mercados globales para que todo el mundo pueda invertir sin complicaciones. A través de nuestra atención al cliente, diversidad de inversiones, plataforma y academia, hacer que nuestros clientes tengan una experiencia agradable siempre.",
    "about-item-title-three": "Valores",
    "about-item-text-three": "Nuestros sólidos valores de integridad e innovación, siempre ponemos a nuestros clientes en primer lugar y todos nuestros esfuerzos se centran en que inversores y traders desarrollen su verdadero potencial.",
    "about-section-two-title": "Por qué cada vez más personas eligen OPUTRADE",
    "about-section-two-text-one": "Plataforma avanzada, fácil e intuitiva",
    "about-section-two-text-two": "Expertos asesores en línea",
    "about-section-two-text-three": "Servicios y contenidos especializados",
    "about-section-two-text-four": "Información de análisis de mercados",
    "about-section-two-text-five": "Cursos, herramientas y tutoriales para la formación de traders",
    "about-section-three-title": "¿Qué más obtienes con nosotros?",
    "about-section-three-text-one": "Completa información de análisis de mercados",
    "about-section-three-text-two": "Dispones de una extensa lista de tutoriales",
    "about-section-three-text-three": "Estrategias de inversión",
    "about-section-three-text-four": "Análisis técnico para reconocer cambios en tendencias",
    "about-section-three-text-five": "Manuales, cursos y herramientas poderosas de fácil uso",
    "about-section-three-text-six": "Guías sencillas y claras para comenzar a operar",
    "about-section-four-title": "¿Qué dicen nuestros clientes?",
    "about-user-one": "Juan Manuel H.",
    "about-user-one-span": "Abogado.",
    "about-user-one-text": "“Yo no tenía ninguna experiencia, pero eso no impidió que aprendiera sobre trading de forma rápida. Me ayudaron a entender cómo operar paso a paso, a usar la plataforma y sus herramientas y lo mejor es que con los cursos de su Academia puedo convertirme en un trader profesional. Los recomiendo ampliamente”",
    "about-user-two": "Lorena V.",
    "about-user-two-span": "Maestra.",
    "about-user-two-text": "“Después de ver diferentes opciones me encontré con OPUTRADE y desde que me contactaron quedé convencida que era mi mejor elección. Su equipo altamente capacitado me explicaba a detalle y de forma sencilla todo sobre inversiones y gracias a su Academia logré entender mejor sobre los diferentes mercados. Siempre estuvieron a mi lado ¡y eso me gustó mucho!”",
    "about-user-three": "Rafael P.",
    "about-user-three-span": "Diseñador.",
    "about-user-three-text": "“Me apasionaba esto de las inversiones, pero no sabía cómo hacerlo hasta que encontré OPUTRADE. Ellos me asesoraron de manera muy atenta y profesional a ir paso a paso y entendiendo sobre tendencias, herramientas, además su plataforma Web es intuitiva y fácil de entender. Si tú también tienes dudas, te recomiendo que los contactes.”",
    "education-title": "Educación",
    "education-hero-strong": "Academia Oputrade,",
    "education-hero": " ha sido creada para formar personas sin experiencia en verdaderos profesionales del trading. La formación está orientada a la inversión de corto plazo en todo tipo de mercados financieros como Forex, índices, acciones, materias primas, bonos y EFDs.",
    "education-hero-one": "Con la firme intención de ofrecer una alternativa de auténtica calidad nace Academia Oputrade que ofrece: Sentar una base sólida de conocimientos Formación práctica continua Aprender invirtiendo",
    "education-section-one-title": "Algunos temas que abarcan nuestros cursos son:",
    "education-section-one-subtitle": "Confía en el mejor equipo de analistas, asesores y la tecnología más avanzada para desarrollar tu máximo potencial como trader.",
    "education-section-one-item1": "Análisis",
    "education-section-one-item1-text": "Operar en trading en determinados casos, puede ser complicado por las dificultades de interpretación de la terminología financiera. Uno de los beneficios de operar con nuestro sistema es que puedes utilizar pocas variables para hacer un análisis con excelentes posibilidades de éxito.",
    "education-section-one-item2": "Mercado",
    "education-section-one-item2-text": "La compraventa de activos cotizados con gran liquidez de mercados como acciones, divisas y futuros, entre otros, es a lo que se le llama trading. El objetivo principal de este tipo de trading es obtener un beneficio económico cuando las operaciones generan plusvalía.",
    "education-section-one-item3": "Comercio de Mercados Volátiles",
    "education-section-one-item3-text": "El trading con volatilidad es particularmente valioso cuando los eventos globales provocan incertidumbre en el mercado. ¿Esperas una reacción significativa en los mercados, pero no sabes qué dirección van a tomar? Utiliza la volatilidad para operar, asesorarte y obtener beneficios si estando en lo correcto.",
    "education-section-two1": "Acciones",
    "education-section-two2": "Criptomonedas",
    "education-section-two3": "Commodities",
    "education-section-two-button": "ver todos los cursos",
    "education-section-three1": "Estrategias de Mercado",
    "education-section-three2": "Alternativas del Mercado",
    "education-section-three3": "Curso Profesional para Principiantes",
    "education-section-three-button": "ver todos los webinars",
    "education-section-four1": "Análisis Técnico",
    "education-section-four2": "Fundamentos de inversiones",
    "education-section-four3": "Manual de Trading Avanzado",
    "education-section-four-button": "ver todos los ebooks",
    "education-text-one": "Haz de tu pasión por el trading, ¡tu profesión!",
    "education-text-two": "Aprende a tu propio ritmo, acompañado siempre de las mejores herramientas y de un equipo de profesionales que te apoyarán paso a paso en tu formación.",
    "market-title": "Mercado",
    "market-tab1": "Divisas",
    "market-tab2": "Índices",
    "market-tab3": "Acciones",
    "market-tab4": "Criptomonedas",
    "market-tab5": "Materias primas",
    "market-tab5-1": "Materias Primas o Commodities",
    "market-tab5-2": "Commodities",
    "market-tab6": "Bonos",
    "market-tab7": "ETF's",
    "market-text1": "Facilitar el flujo monetario que se deriva del comercio internacional es la base por la cual surgió el poder operar en el mercado de divisas o Forex. Actualmente se manejan a diario unos 5 billones de dólares, es por ello, que cada vez son más particulares y empresas que deciden operar en el mercado Forex. Algunos beneficios son: Amplia libertad. No hay horarios ni ataduras, solo se necesita una conexión a internet para realizar operaciones y estar al tanto de las cuentas y las cantidades que se manejen. Costes bajos.  En un mercado Forex, el beneficio se halla en la diferencia entre el precio de la compra y el de la venta de las divisas. Gran liquidez. Su gran liquidez es la mayor del mundo. Esto permite tramitar y cerrar operaciones a nivel global, de forma fácil y en cualquier hora del día. Escasa inversión. El mercado Forex no precisa de grandes inversiones, tan solo basta con empezar con un pequeño capital. Apalancamiento. Pese a su riesgo, es un beneficio destacable en el mercado Forex ya que permite abrir una operación de más dinero del que disponemos. Asesórate antes con profesionales.",
    "market-text2": "Los índices bursátiles cuentan con gran popularidad en la comunidad inversora, por lo que se negocian en grandes volúmenes. Además de ser considerado el mejor punto de partida para los traders principiantes, estos son operados diariamente por traders expertos, lo que facilita hacer uso de herramientas fiables. Entre los índices más conocidos se encuentra el Índice de la Bolsa de Valores de Brasil, el Índice FTSE 100, el DAX, el Índice Promedio Industrial Dow Jones y el Índice HS, entre otros. Los índices son más fáciles de operar de lo que parece, con nuestros cursos podrás dominar el trading de índices y te facilitará operar también con divisas.",
    "market-text3": "Las acciones son unidades de propiedad en una o más compañías. El titular, conocido como accionista, tendrá también el derecho a obtener una parte de los beneficios de la compañía en caso de que se paguen dividendos, así como derechos de voto. El trading de acciones a través de productos derivados se está popularizando gracias a que te permite ir a corto o largo plazo, dándote la posibilidad de obtener beneficios de mercados que están tanto al alza como a la baja, ya que no es necesario poseer el activo subyacente. ¡Aprende y emprende tu camino a las inversiones con nosotros!",
    "market-text4": "¡Comienza a operar aun sin experiencia previa en las criptomonedas más populares del mercado! Las criptomonedas son monedas digitales, las cuales manejan la descentralización, por eso, es necesario entender la mecánica de estas para poder negociar con ellas, lo cual aprenderás a través de nuestra Academia. Especializarte en el traiding de criptomonedas puede ser un camino bastante redituable. El tipo de trading que se lleva a cabo al invertir en criptomonedas a través de los CDFs, es similar a como opera con el mercado de Forex, es decir, en pares, lo que permite realizar cruces de divisas comunes como el dólar estadounidense (USD) y las monedas digitales como el bitcoin (BTC).",
    "market-text5": "Para operar Materias Primas el procedimiento es similar al que se da con otras inversiones como en el Mercado Forex. Ejemplos de commodities incluyen el maíz, el trigo, el oro, el petróleo, etc. Estos mercados ofrecen una forma transparente de hacer negocios. El objetivo es el mismo, comprar y vender para obtener rentabilidad; buscando vender a un precio mayor al de compra o volver a comprar a un menor valor del precio al que se vendió antes ¡y tú puedes hacer trading con excelentes ganancias! Como trader profesional podrás diversificar tu cartera de inversiones y ganar más.",
    "market-text6": "Los bonos son promesas de pago convertidas a títulos públicos. Podríamos decir que son préstamos en dónde hay un emisor y un receptor. El emisor del bono puede ser un país o una empresa. Son considerados un instrumento de renta fija en dónde el emisor del bono se compromete a devolver el capital que recibió a través del bono en una fecha determinada, el pago periódico de intereses hasta el vencimiento del bono y el cumplimiento de toda obligación especificada en el bono. ¡Los traders actualmente han llegado a procesar un 60% más de operaciones que hace un año!",
    "market-text7": "Diversifica tu portafolio invirtiendo en ETFs nacionales e internacionales y reducen el riesgo. Un ETF es un conjunto de activos que cotiza en la bolsa de valores y son vehículos que ayudan a invertir de manera diversificada y con bajo costo, es decir, los inversionistas pueden beneficiarse de una diversificación instantánea debido a que ofrecen mayor diversidad que la que se obtiene al comprar acciones individuales, ya que reúne en un mismo lote diferentes activos como acciones, bonos y materias primas. Invertir en ETFs puede ofrecer una variedad de beneficios, como simplicidad, bajo costo, transparencia, diversificación y flexibilidad. Y además, ¡son fáciles de operar!",
    "platform-title": "Plataforma",
    "platform-title-two": "Beneficios",
    "platform-title-three": "Haz más dinero con tu dinero a través de nuestros Planes",
    "platform-text1": "Sirix Trading Platform es una excelente plataforma para hacer trading que puedes utilizar para automatizar tu inversión. Su interfaz es amigable y fácil de usar, además te ofrece acceso a un análisis técnico avanzado y a sistemas de trading flexibles. Con las bases sólidas que aprenderás con nosotros harás de esta plataforma tu herramienta preferida para operar como todo un profesional con CFDs en mercados que incluyen índices, criptomonedas y materias primas entre otros.",
    "platform-text2": "Una segunda gran opción es WebTrader, esta plataforma completamente fiable y a la que puedes acceder en línea desde cualquier ordenador para abrir posiciones, administrar o cerrar ganancias. Cuenta con potentes herramientas y es fácil de usar. También cuenta con funciones destacadas, controles intuitivos y acceso permanente a los mercados de CFDs y Forex.",
    "platform-text3": "En ambos casos puedes crear una cuenta de manera rápida y fácil para operar al instante.",
    "platform-text4-strong": "Trading Profesional:",
    "platform-text4": "Acceso a Sirix Trading Platform para manejo de cartera de manera profesional, spreads bajos para operaciones de alta frecuencia, paquete de educación avanzada, cuenta de Forex loop incluida para seminarios web interactivos, actualizaciones diarias, semanales y mensuales y recomendaciones sobre cómo operar.",
    "platform-text5-strong": "Inversión para el retiro:",
    "platform-text5": "Plan de manejo eficiente de impuestos, asesoramiento de experto, inversiones a largo plazo, actualización constante de las oportunidades del mercado de valores e inversiones sólidas.",
    "platform-text6-strong": "Plazo fijo:",
    "platform-text6": "Cuentas en monedas seguras (libra esterlina/euro), protección ante devaluación de divisas, cuenta autogestionada, reporte de ganancias y grupos de inversión con activos refugio.",
    "platform-list-item1": "Paquetes gráficos profesionales gratuitos y avanzados",
    "platform-list-item2": "Análisis del mercado que permiten realizar órdenes de manera sencilla.",
    "platform-list-item3": "Permiten hacer trading de manera automática a través de la herramienta Asesor de Expertos.",
    "platform-list-item4": "Fáciles de usar y de diseño intuitivo con gráficos en diferentes marcos de tiempo",
    "platform-list-item5": "Están constantemente actualizadas y mejoradas",
    "platform-list-item6": "Trading en Forex, CFDs, materias primas, acciones, índices, criptomonedas y bonos.",
    "platform-list-item7": "Sirix Trading Platform se puede usar desde la aplicación o desde smartphones o tablets.",
    "platform-list-item8": "La plataforma WebTrader no requiere descarga ni instalación.",
    "support-title": "Soporte",
    "support-subtitle": "Preguntas frecuentes",
    "support-question1": "VERIFICACIÓN",
    "support-answer1": "¿Está mi información personal segura con ustedes?\nOPUTRADE toma serias medidas de precaución para asegurarse de que sus datos personales se mantienen con absoluta confidencialidad. Su contraseña está encriptada y sus datos personales almacenados en servidores seguros y no se puede acceder a ellos de ningún modo, con la excepción de un número muy pequeño de miembros autorizados de nuestro personal.\n\n¿Qué documentos necesitan?\nRequerimos una copia de su pasaporte internacional válido, tarjeta de identificación nacional o licencia de conducir para verificar su identidad. También podemos solicitar un documento de Prueba de residencia que muestre su nombre y dirección, emitido dentro de los últimos 6 meses. Los documentos requeridos y su estado de verificación actual se pueden ver en cualquier momento a través de OPUTRADE.\n\n¿Qué debo hacer si no apruebo la prueba de identidad? \nEstamos obligados a evaluar la idoneidad de nuestros clientes en lo que respecta a su comprensión de los CFD y el conocimiento de los riesgos involucrados. Si se considera que actualmente no tiene la experiencia requerida, puede continuar con la creación de una cuenta de demostración y leer nuestra Sección de Academia para familiarizarse con el mercado y practicar el comercio. Una vez que sienta que está listo y tiene la experiencia suficiente para abrir una cuenta real, y sea plenamente consciente de los riesgos involucrados, comuníquese con nosotros para que podamos reevaluar su idoneidad. Si la información que nos proporcionó en el formulario de registro era incorrecta, háganoslo saber para que podamos comunicarnos con usted y aclarar cualquier error.",
    "support-question2": "SEGURIDAD",
    "support-answer2": "¿Cómo puedo proteger mis datos en línea?\nEn OPUTRADE, la protección de los datos del cliente es una prioridad y seguimos las mejores prácticas que se describen en detalle en nuestra política de privacidad. También hay acciones que le recomendamos encarecidamente que realice para ayudar a mantener seguros sus datos personales: Nunca comparta su(s) contraseña(s) o información confidencial de la cuenta con nadie. Tenga cuidado con los estafadores que pueden comunicarse con usted alegando ser una empresa de renombre y de no proporcionarles ninguna información personal. No haga clic en ningún enlace ni abra ningún archivo adjunto de correos electrónicos que no reconozca ni responda a remitentes de SMS desconocidos. Verifique siempre la autenticidad. Las transacciones sólo deben realizarse a través de nuestro portal seguro OPUTRADE. Nunca envíe fondos a una fuente externa. Cambie su (s) contraseña (s) con frecuencia y configure un software antimalware en cualquier dispositivo que pueda usar.\n\n¿Cómo mantener seguros los fondos de los clientes?\nOPUTRADE se toma la seguridad de los fondos de sus clientes de manera muy seria. Por esta razón, todos los fondos de los clientes están completamente segregados de los propios fondos de la compañía y se mantienen en cuentas separadas en los principales bancos. Esto asegura que los fondos de los clientes no se pueden utilizar para otro propósito.\n\n¿Qué tasa de conversión utilizan?\nLos clientes de OPUTRADE se benefician de algunas de las tasas de conversión más competitivas del mercado. Para depósitos desde una fuente de financiación externa (por ejemplo, su tarjeta de crédito o su cartera en otra divisa) y las retiradas a una fuente de financiación externa (por ejemplo, desde su cartera a una tarjeta de crédito en otra divisa), los fondos se convertirán según la tasa de cambio bancaria del momento.",
    "support-question3": "PLATAFORMA",
    "support-answer3": "¿Son sus plataformas compatibles con Mac?\nLas plataformas bursátiles OPUTRADE son compatibles con Mac y pueden descargarse desde nuestro centro de descarga. Por favor, tenga en cuenta que las versiones web y móviles de nuestras plataformas bursátiles también están disponibles. Como líder mundial en el comercio de CFD, en OPUTRADE siempre buscamos expandir nuestra oferta de productos y proporcionar las plataformas de comercio más convenientes y con más funciones del mercado.",
    "support-question4": "CUENTA",
    "support-answer4": "¿Cómo abro una cuenta bursátil real?\nPara registrarse en una cuenta bursátil real, haga clic en el icono. Regístrese en la página principal de OPUTRADE y siga los pasos requeridos para completar el proceso. Recibirá automáticamente un correo electrónico sus credenciales para la plataforma a la dirección de correo que nos ha proporcionado. Inicie sesión en OPUTRADE con su dirección de correo electrónico y seleccione una contraseña. Desde allí, podrá cargar sus documentos (si todavía no lo ha hecho), gestionar su cuenta, descargar las plataformas y realizar depósitos en ella.\n\n¿Puedo abrir más de una cuenta en OPUTRADE?\nSí, OPUTRADE permite abrir hasta 5 cuentas diferentes. Puede abrir cuentas bursátiles adicionales a través de OPUTRADE.",
    "terms-title": "Términos y Condiciones",
    "terms-title1": "Política de ejecución de pedidos",
    "terms-title2": "Declaración de divulgación de riesgo",
    "terms-tab1": "ejecución de pedidos",
    "terms-tab2": "política de privacidad",
    "terms-tab3": "AML",
    "terms-tab4": "conflicto de intereses",
    "terms-tab5": "divulgación de riesgo",
    "terms-tab6": "kyc",
    "terms-text1": "1.Introducción\n1.1. Este resumen de la Política de Mejor Interés y Ejecución de Órdenes (“la Póliza”) se le proporciona a usted (nuestro Cliente o Cliente potencial) de acuerdo con la Provisión de Servicios de Inversión, el Ejercicio de Actividades de Inversión, la Operación de Mercados Regulados y otras Materias Relacionadas. 144 (I) / 2007, tal como se modificó posteriormente de vez en cuando (“la Ley”). De conformidad con la Ley, OPUTRADE (“la Compañía”) debe tomar todas las medidas razonables para actuar en el mejor interés de sus Clientes en el momento de la recepción (tal como se define en la Política de Clasificación de Clientes de la Compañía). Si la Compañía clasifica a un Cliente como una Contraparte Elegible, esta Política no se aplica a dicha Contraparte Elegible.\n\n2. Esta política se aplica al recibir y transmitir órdenes de clientes o ejecutar órdenes de clientes para el cliente para todos los tipos de divisas ofrecidas por la empresa.\n3.       Mejores factores de ejecución\n3.1. La Compañía deberá tomar todas las medidas razonables para obtener los mejores resultados posibles para sus Clientes teniendo en cuenta los siguientes factores al ejecutar las órdenes de los Clientes contra los precios cotizados de la Compañía: \n(a) Precio: el precio de la Compañía para un tipo determinado de divisas se calcula por referencia al precio del activo subyacente relevante, que la Compañía obtiene de fuentes externas de referencia de terceros. Los precios de la Compañía se pueden encontrar en la plataforma de comercio en línea de la Compañía. La Compañía actualiza sus precios con la frecuencia que las limitaciones de la tecnología y los enlaces de comunicación permiten. La Compañía revisa sus fuentes externas de referencia de terceros de vez en cuando para garantizar que los datos obtenidos continúen siendo competitivos. La Compañía no cotizará ningún precio fuera del tiempo de operaciones de la Compañía, por lo tanto, el Cliente no podrá realizar pedidos durante ese tiempo.\n(b) Costos.\n(c) Velocidad de ejecución: la compañía no ejecuta el pedido del cliente en Forex como principal al principal contra el cliente, es decir, la compañía no es el lugar de ejecución (como se define en la Directiva 2006/73 / CE de la Comisión que implementa MiFID) para la ejecución del pedido del cliente. La Compañía transmite órdenes de clientes o arregla su ejecución con un tercero (s). Sin embargo, la Compañía otorga una importancia significativa al ejecutar las órdenes del Cliente y se esfuerza por ofrecer una alta velocidad de ejecución dentro de las limitaciones de los enlaces de tecnología y comunicaciones.\n(d) Probabilidad de ejecución: cuando la empresa transmite órdenes de ejecución o las ejecuta con otra parte, la ejecución puede ser más difícil. La probabilidad de ejecución depende de la disponibilidad de precios de otros creadores de mercado / instituciones financieras. En algunos casos, puede no ser posible organizar un Pedido para su ejecución, por ejemplo, pero no limitado en los siguientes casos: durante las noticias, momentos de inicio de sesiones de negociación, durante mercados volátiles donde los precios pueden subir o bajar significativamente y alejarse de los precios declarados , donde hay un movimiento rápido de los precios, donde no hay suficiente liquidez para la ejecución del volumen específico al precio declarado, se ha producido un evento de fuerza mayor. En caso de que la Compañía no pueda proceder con un Pedido con respecto al precio o tamaño u otro motivo, el Pedido no se ejecutará. Además, la Compañía tiene derecho, en cualquier momento y a su discreción, sin dar aviso o explicación al Cliente, a declinar o negarse a transmitir u organizar la ejecución de cualquier Orden o Solicitud o Instrucción del Cliente en circunstancias explicadas en el Acuerdo del cliente / Términos y condiciones generales.\n(e) Probabilidad de liquidación.\n(f) Tamaño de la orden.\n(g) Impacto en el mercado: algunos factores pueden afectar rápidamente el precio de los activos subyacentes de los cuales se deriva el precio cotizado de la Compañía y también pueden afectar otros factores enumerados aquí. La Compañía tomará todas las medidas razonables para obtener el mejor resultado posible para sus Clientes.\n\n3.2. La Compañía no considera que la lista anterior sea exhaustiva y el orden en que se presentan los factores anteriores no debe tomarse como factor de prioridad. Sin embargo, siempre que haya una instrucción específica del Cliente, la Compañía se asegurará de que la orden del Cliente se ejecute siguiendo la instrucción específica.\n\n4. Los mejores criterios de ejecución\n4.1. La Compañía determinará la importancia relativa de los Factores de Mejor Ejecución anteriores (del párrafo 3 anterior) utilizando su juicio comercial y experiencia a la luz de la información disponible en el mercado y tomando en cuenta:\n(a) Las características del pedido del Cliente.\n(b) Las características del Forex que son el sujeto de ese pedido.\n(c) Las características del lugar de ejecución al que se dirige esa orden.\n\n4.2. Para los clientes minoristas, el mejor resultado posible se determinará en términos de la consideración total, que representa el precio de la divisa y los costos relacionados con la ejecución, que incluirá todos los gastos incurridos por el cliente que están directamente relacionados con la ejecución de la orden, incluidas las tarifas de la sede de ejecución, las tarifas de compensación y liquidación y cualquier otra tarifa pagada a terceros involucrados en la ejecución de la orden.\n\n5. Instrucción específica del cliente\n5.1. Siempre que haya una instrucción específica de un cliente o en su nombre (por ejemplo, completa las partes requeridas en la plataforma comercial de la Compañía al realizar un Pedido), la Compañía deberá organizar, en la medida de lo posible, la ejecución del pedido del Cliente estrictamente en de acuerdo con la instrucción específica. Se observa que la instrucción específica puede evitar que la Compañía siga los pasos de la Política para obtener el mejor resultado posible para el Cliente.\n5.2. Las reglas de negociación para mercados específicos o condiciones de mercado pueden impedir que la Compañía siga ciertas instrucciones del Cliente.\n\n6. Ejecución en pedidos de clientes\n6.1. La Compañía deberá cumplir las siguientes condiciones al llevar a cabo las órdenes del cliente:\n(a) garantiza que las órdenes ejecutadas en nombre de los clientes se registran y asignan con prontitud y precisión;\n(b) Realiza pedidos de clientes de otro modo comparables de forma secuencial y puntual a menos que las características del pedido o las condiciones imperantes en el mercado lo hagan impracticable;\n(c) Informa a un Cliente minorista sobre cualquier dificultad material relevante para el correcto cumplimiento de los pedidos al momento de tomar conciencia de la dificultad.\n\n7. Lugares de ejecución\n7.1. Los lugares de ejecución son las entidades con las que se colocan las órdenes. A los efectos de las Órdenes para el Mercado Forex, una tercera Institución Financiera será el Lugar de Ejecución y no la Compañía. Una lista de estas instituciones financieras se dará a conocer a los Clientes en un medio duradero o se podrá publicitar en el sitio web principal de la Compañía. La lista puede modificarse a discreción de la Compañía mediante notificación previa a los Clientes al menos un día hábil.\n7.2. El Cliente reconoce que las transacciones registradas en Forex con la Compañía no se realizan en un intercambio reconocido, sino que se realizan en el mostrador (OTC) y, como tales, pueden exponer al Cliente a mayores riesgos que las transacciones de cambio reguladas.\n\n8. Consentimiento del cliente\n8.1. Al celebrar un Acuerdo con la Compañía para la prestación de los Servicios de inversión, el Cliente acepta la aplicación de esta Política sobre él.\n\n9. Enmienda de la política e información adicional\n9.1. La Compañía se reserva el derecho de revisar y / o enmendar su Política y arreglos siempre que lo considere apropiado sin previo aviso al Cliente. Si necesita más información y / o tiene alguna pregunta sobre conflictos de interés, envíe su solicitud y / o preguntas a support@oputrade.com",
    "terms-text2": "Su privacidad es importante para nosotros. En OPUTRADE, tratamos toda la información recopilada o transmitida con cuidado, en particular, información de identificación personal, y esta Política describe cómo, cuándo y por qué recopilamos dicha información. información de identificación personal (\"Información personal\") hace referencia a cualquier información que se pueda usar, ya sea solo o en combinación con otra información, para identificar personalmente, contactar o localizar a una persona. Esto puede incluir, entre otros, nombre, apellido, ID, número de pasaporte, dirección, correo electrónico, detalles de la tarjeta de crédito / débito, datos financieros (incluidos datos comerciales, depósitos, retiros y crédito) y otra información de contacto. Cualquier información que no permita la identificación, ubicación o contacto de un individuo, como información agregada, es \"información anónima\", y OPUTRADE puede procesarla Información anónima de cualquier manera que considere sin previo aviso.\n\nCONSENTIMIENTO, AVISO Y MODIFICACIÓN\nAl utilizar el sitio web, usted nos autoriza a recopilar la información personal y en la medida necesaria para administrar su cuenta y mejorar los servicios y la información que le enviamos. Esta información se puede enviar a cualquier entidad que contribuya al servicio que se le proporciona, como los responsables de la ejecución de los servicios y las órdenes para su gestión, ejecución, procesamiento y pago. Además, como destinatario de nuestro servicio, usted se compromete a proporcionar un aviso apropiado de sus prácticas de privacidad y obtener los permisos y el consentimiento necesario de cualquier tercero con el que participe y / o cuya información personal se recopile, reciba o utilice. y / o divulgado por nosotros. La información personal se archiva para fines de seguridad, para cumplir con las obligaciones legales y reglamentarias. Usted tiene derecho de acceso, rectificación y oposición a su información personal. Esto también incluye el derecho a darse de baja de correos electrónicos que se le enviarán de vez en cuando. Nos reservamos el derecho, a nuestra discreción y sujeto a la ley aplicable, de enmendar esta Política de privacidad en cualquier momento y cualquier modificación será efectiva dentro de los 15 días posteriores a la publicación de la Política modificada en nuestro sitio web, y su uso continuo del servicio constituirá consentimiento a los términos y disposiciones de la Política modificada.\n\nRECOPILACIÓN Y EL RECIBO DE LA INFORMACIÓN\nRecopilamos y recibimos información personal relacionada con los traders. Esto ocurre debido al hecho de que, como parte del servicio, podemos proporcionar servicios de alojamiento para algunos o todos los servicios, lo que da como resultado la información personal relacionada con el trade que nos enrutan desde nuestros servidores de producción. También recopilamos y recibimos información personal relacionada con ciertos empleados de nuestros clientes para fines de comunicación con nosotros y la prestación general del servicio. El servicio también puede usar \"cookies\" y otras tecnologías de seguimiento para recopilar información anónima. Una \"cookie\" es un pequeño archivo de texto que se puede usar, por ejemplo, para recopilar información sobre la actividad del servicio y puede servir para recordar información personal previamente indicada por un trader, como su identificación de usuario y contraseña para acceder al servicio(s). \n\nUSO Y DIVULGACIÓN DE INFORMACIÓN PERSONAL\nArchivaremos su información personal en nuestro sistema y la utilizaremos solo para los siguientes propósitos: Administrar los aspectos administrativos de los servicios, brindar soporte, manejar las quejas y comunicarse con usted. Manejar sus pedidos. Evitar el uso indebido del sitio web, cumplir con los requisitos legales, ayudar a las autoridades competentes y tomar medidas en caso de una disputa que lo involucre, con respecto al servicio que proporcionamos. Mejorar continuamente el sitio web y los servicios, desarrollar nuevos servicios, así como la precisión y fiabilidad de los mismos. No vendemos, otorgamos licencias, alquilamos ni divulgamos información personal a ningún tercero por ningún motivo, excepto como se describe anteriormente. Nos reservamos el derecho de divulgar su información personal a terceros cuando así lo exija la ley a las autoridades regulatorias, en cumplimiento de la ley u otras autoridades gubernamentales. También podemos divulgar su información según sea necesario a las agencias de informes o cobro de crédito, o cuando sea necesario para proteger nuestros derechos o propiedad de acuerdo con la ley aplicable. Para ayudarnos a mejorar nuestros servicios podemos involucrarnos en otro negocio relacionado que nos ayude a llevar a cabo ciertas funciones internas tales como procesamiento de cuentas, cumplimiento, servicio al cliente, entrega y custodia, como se indica en los Términos y Condiciones. El uso de la información compartida se limita estrictamente al desempeño de la tarea que solicitamos y para ningún otro propósito. Todos los terceros con quienes compartimos información personal están obligados a proteger la información de forma similar a la forma en que lo hacemos nosotros y de acuerdo con las nuevas regulaciones de protección de datos de la UE (\"GDPR\"), si corresponde. Ejemplos de información privada compartida son información de identificación como el nombre, la dirección postal, la dirección de correo electrónico, el número de teléfono y la información sobre la actividad de la cuenta. Si en algún momento decide comprar un producto o servicio ofrecido por otra compañía o individuo, cualquier información personal que comparta con ella ya no estará controlada por nuestra Política de Privacidad. No somos responsables de las políticas de privacidad o del contenido de los sitios a los que nos vinculamos y no tenemos control alguno sobre el uso o la protección de la información que usted proporcione o que se recopile. Cada vez que elija vincularse a un sitio web de marca compartida o a un sitio web vinculado, se le puede solicitar que proporcione el registro u otra información. Tenga en cuenta que la información que está proporcionando va a un tercero y debe familiarizarse con la política de privacidad publicada por ese tercero. En caso de que elija obtener parte o la totalidad de su información privada almacenada de nuestra base de datos, comuníquese con nuestro Oficial de Protección de Datos (\"DPO\") en el siguiente correo electrónico: docs@oputrade.com\n\nSEGURIDAD\nTomamos precauciones razonables para proteger la Información personal contra pérdida, robo, uso indebido, acceso no autorizado o divulgación, alteración o destrucción. Esto se hace mediante el uso de protecciones físicas, electrónicas y de procedimiento para proteger la información personal y no archivamos esa información por más tiempo de lo necesario para proporcionar el servicio o según lo permitido por la ley. Aunque implementamos medidas para reducir los riesgos de daños, pérdida y acceso no autorizado a la información personal, no brindan seguridad absoluta de la información, por lo tanto, no está garantizado, y no se puede esperar razonablemente, que el servicio sea completamente inmune a cualquier interceptación o acceso no autorizado.\n\nCAMBIOS A ESTA POLÍTICA DE PRIVACIDAD\nEsta política de privacidad puede modificarse ocasionalmente, según se estime oportuno, y cuando los cambios sean requeridos por el GDPR o cualquier otra ley aplicable. Esta versión vinculante es la versión más actualizada publicada en el sitio. Le informaremos por correo electrónico sobre cualquier cambio material.",
    "terms-text3": "POLÍTICA CONTRA EL BLANQUEO DE CAPITAL\n\nPolítica contra el lavado de dinero.\noputrade.com no tolera el lavado de dinero y apoya la lucha contra los blanqueadores de dinero. oputrade.com sigue las pautas establecidas por el Grupo Directivo Conjunto de Lavado de Dinero del Reino Unido. El Reino Unido es miembro de pleno derecho del Grupo de Acción Financiera Internacional (GAFI), el organismo intergubernamental cuyo objetivo es combatir el lavado de dinero y el financiamiento del terrorismo. oputrade.com tiene políticas establecidas para disuadir a las personas de lavar dinero. Estas políticas incluyen: asegurar que los clientes tengan un comprobante de identificación válido y que mantengan registros de información de identificación; determinar que los clientes no son conocidos o sospechosos de terrorismo al verificar sus nombres contra listas de terroristas conocidos o sospechosos; informar a los clientes que la información que brindan puede usarse para verificar su identidad siguiendo de cerca las transacciones monetarias de los clientes. No se acepta dinero en efectivo, giros postales, transacciones de terceros, transferencias de casas de cambio o transferencias de Western Union. El lavado de dinero ocurre cuando los fondos de una actividad ilegal o criminal se mueven a través del sistema financiero de tal manera que parezca que los fondos provienen de fuentes legítimas. El lavado de dinero generalmente sigue tres etapas: En primer lugar, el efectivo o los equivalentes de efectivo se colocan en el sistema financiero; en segundo lugar, el dinero se transfiere a otras cuentas (por ejemplo, cuentas de futuros) a través de una serie de transacciones financieras diseñadas para ocultar el origen del dinero (por ejemplo, realizar operaciones con poco o ningún riesgo financiero o transferir saldos de cuentas a otras cuentas); y, por último, los fondos se vuelven a introducir en la economía para que parezcan provenir de fuentes legítimas (por ejemplo, cerrar una cuenta de futuros y transferir los fondos a una cuenta bancaria). Las cuentas de negociación son un vehículo que puede utilizarse para blanquear fondos ilícitos o para ocultar al verdadero propietario de los fondos. Una cuenta comercial se puede utilizar para ejecutar transacciones financieras que ayudan a oscurecer los orígenes de los fondos. oputrade.com dirige los retiros de fondos a la fuente original de envío, como medida preventiva. International Anti-Money Laundering requiere que las instituciones de servicios financieros estén al tanto de posibles abusos de lavado de dinero que podrían ocurrir en una cuenta de cliente e implementen un programa de CONFORMIDAD para disuadir, detectar e informar cualquier actividad sospechosa. Estas pautas se han implementado para proteger oputrade.com y a sus clientes. Para preguntas / comentarios sobre estas pautas, contáctenos a support@oputrade.com ¿Qué es lavado de dinero?\n\nEl lavado de dinero es el acto de ocultar el dinero obtenido ilegalmente, por lo que la fuente parece legítima. Cumplimos con leyes estrictas que hacen que sea ilegal para nosotros o para cualquiera de nuestros empleados o agentes el participar a sabiendas o intentar participar en actividades relacionadas remotamente con el lavado de dinero. Nuestras políticas contra el lavado de dinero aumentan la protección de los inversores y los servicios de seguridad del cliente, y ofrecen procesos de pago seguros. Identificación: La primera protección contra el lavado de dinero es la verificación sofisticada de Know-Your-Client (KYC).\nPara garantizar la CONFORMIDAD de las normas AML estándar, le solicitamos que presente la siguiente documentación:\n\n· Prueba de identificación: una copia clara del anverso y reverso de su identificación con fotografía emitida por el gobierno, es decir, un pasaporte válido, licencia de conducir o tarjeta de identificación nacional.\n· Comprobante de residencia: documento oficial emitido en los últimos 3 meses, que indica claramente su nombre y dirección tal como está registrado en OPUTRADE. Esto puede ser una factura de servicios públicos (es decir, agua, electricidad o teléfono fijo) o extracto bancario.Por favor, asegúrese de que su copia incluya:\n\n· Su nombre completo y legal\n· Su dirección residencial completa\n· Fecha de emisión (en los últimos 3 meses)\n· Nombre de la autoridad emisora con un logotipo o sello oficial\n· Copia del anverso y reverso de su tarjeta de crédito: para garantizar su privacidad y seguridad, solo deben estar visibles los últimos 4 dígitos de su tarjeta de crédito. También puede cubrir los últimos 3 dígitos en la parte posterior de su tarjeta (código CVV).\nTenga en cuenta que los requisitos regulatorios difieren en ciertos países y es posible que tengamos que solicitarle más documentación.\n\nSupervisión\nNo aceptamos pagos de terceros. Todos los depósitos deben hacerse a su nombre y coincidir con los documentos KYC presentados. Debido a las políticas de regulación de AML, todos los fondos retirados deben devolverse a la fuente exacta desde la que se recibieron. Esto significa que los fondos depositados originalmente a través de transferencia bancaria serán devueltos a la misma cuenta cuando se realiza una solicitud de retiro. Igualmente, si depositó con tarjeta de crédito, sus fondos se devolverán a la misma tarjeta de crédito cuando se realice una solicitud de retiro. Bajo ninguna circunstancia aceptamos depósitos en efectivo ni desembolsamos efectivo cuando se realizan solicitudes de retiro.\n\nReportes\nLa regulación AML nos exige monitorear y rastrear transacciones sospechosas e informar tales actividades a las agencias de aplicación de la ley pertinentes. También nos reservamos el derecho de denegar una transferencia en cualquier etapa si creemos que la transferencia está relacionada de alguna manera con actividad delictiva o el lavado de dinero. La ley nos prohíbe informar a los clientes sobre los informes enviados a las agencias de aplicación de la ley sobre actividades sospechosas.",
    "terms-text4": "1.       Introducción \nEsta Política de Conflicto de Intereses resumida (“la Política”) se le proporciona a usted (nuestro Cliente o Cliente potencial) de conformidad con la Ley de Servicios de Inversión, Ejercicio de Actividades de Inversión, Operación de Mercados Regulados y Otros Asuntos Relacionados Ley 144 (I) / 2007, según se modifique posteriormente de vez en cuando (“la Ley”), según la cual OPUTRADE (“la Compañía”) debe tomar todas las medidas razonables para detectar y evitar conflictos de intereses. La Compañía se compromete a actuar de manera honesta, justa y profesional y en el mejor interés de sus Clientes y cumplir, en particular, con los principios establecidos en la legislación anterior al proporcionar servicios de inversión y otros servicios auxiliares relacionados con dichos servicios de inversión. El propósito de este documento es establecer el enfoque de la Compañía en la identificación y gestión de conflictos de interés que puedan surgir durante el curso de sus actividades comerciales normales. Además, este documento identifica circunstancias que pueden dar lugar a un conflicto de intereses.\n2.       Alcance\nLa Política se aplica a todos sus directores, empleados, cualquier persona vinculada directa o indirectamente a la Compañía (en adelante, Personas Vinculadas) y se refiere a todas las interacciones con todos los Clientes.\n3.       Identificación de Conflictos de Interés\nCuando la Compañía trata con el Cliente, la Compañía, un asociado u otra persona relacionada con la Compañía puede tener un interés, relación o acuerdo que sea material en relación con la Transacción en cuestión o que entre en conflicto con los intereses del Cliente. Si bien no es factible definir con precisión o crear una lista exhaustiva de todos los conflictos de intereses relevantes que puedan surgir, según la naturaleza, escala y complejidad actuales de los negocios de la Compañía, la siguiente lista incluye circunstancias que constituyen o pueden dar lugar a un conflicto de interés que con lleva un riesgo material de daño a los intereses de uno o más clientes, como resultado de la prestación de servicios de inversión:\n(a) Cuando la Compañía acepta la orden del Cliente en relación con Forex, la Compañía tratará los tipos de Forex involucrados como principal para la cuenta de la Compañía.\n(b) La Compañía puede hacer coincidir la Orden del Cliente con la de otro Cliente actuando en nombre de ese otro Cliente, así como en nombre del Cliente.\n(c) La Compañía puede recibir o pagar incentivos a terceros debido a la referencia de nuevos Clientes o clientes.\nIdentificar los diferentes tipos de conflictos que pueden surgir en el curso de la prestación de sus Servicios, y cuya existencia puede dañar o dañar uno o más intereses de los Clientes, toma en cuenta, a modo de criterios mínimos, la cuestión de si la Compañía misma o una Persona Relacionada o una persona directa o indirectamente vinculada por control a la Compañía, se encuentra en alguna de las siguientes situaciones, como resultado de la prestación de servicios de inversión o de lo contrario:\n(a) La Compañía o una Persona Relacionada es probable que obtenga una ganancia financiera o evite una pérdida financiera a expensas de un Cliente.\n(b) La Compañía o una Persona relacionada recibe o recibirá de una persona que no sea el Cliente un incentivo en relación con un servicio prestado al Cliente, en forma de dinero, Mercados o servicios, que no sea la comisión o tarifa estándar por ese servicio.\n(c) La Compañía o una Persona relacionada tiene un interés en el resultado de un servicio prestado al Cliente o de una transacción realizada para el Cliente, que es distinto del interés del Cliente en ese resultado.\n(d) La Compañía o una Persona relacionada tiene un incentivo financiero o de otro tipo para favorecer el interés de otro Cliente o grupo de Clientes sobre los intereses del Cliente.\n(e) La Compañía o una Persona relacionada lleva a cabo el mismo negocio que el Cliente.\n\n4.       Procedimientos y controles para gestionar conflictos de intereses\nEn general, los procedimientos y controles que la Compañía sigue para administrar los conflictos de interés identificados incluyen las siguientes medidas (la lista no es exhaustiva):\n- La Compañía realiza un monitoreo continuo de las actividades comerciales para garantizar que los controles internos sean apropiados.\n- La Compañía utiliza procedimientos eficaces para prevenir o controlar el intercambio de información entre personas vinculadas que participan en actividades que implican un riesgo de un conflicto de intereses en el que el intercambio de información que puede perjudicar a los intereses de uno o más clientes.\n- La supervisión separada de las Personas Vinculadas cuyas funciones principales incluyen la prestación de servicios a Clientes cuyos intereses pueden entrar en conflicto, o que de otra manera representan diferentes intereses que pueden entrar en conflicto, incluidos los de la Compañía.\n- Medidas para evitar o limitar que una persona ejerza una influencia inapropiada sobre la forma en que la persona relacionada lleva a cabo los servicios de inversión.\n- Medidas para prevenir o controlar la participación simultánea o secuencial de una Persona Relacionada en servicios de inversión por separado cuando dicha participación pueda perjudicar la gestión adecuada de conflictos de interés.\n- Una política diseñada para limitar el conflicto de intereses que surja de la entrega y recepción de alicientes.\n- Muros chinos que restringen el flujo de información confidencial e interna dentro de la Compañía, y la separación física de los departamentos.\n- Una política diseñada para limitar el conflicto de intereses que surja de la entrega y recepción de alicientes.\n- Procedimientos que rigen el acceso a los datos electrónicos.\n- Segregación de deberes que pueden dar lugar a conflictos de intereses si los lleva a cabo el mismo individuo.\n- Requisitos de negociación de cuentas personales aplicables a personas relacionadas en relación con sus propias inversiones.\n- Establecimiento del Departamento de Cumplimiento interno para monitorear e informar sobre lo mencionado anteriormente a la Junta Directiva de la Compañía.\n- Prohibición a los funcionarios y empleados de la Compañía que tengan intereses comerciales externos en conflicto con los intereses de la Compañía sin la aprobación previa de la junta directiva de la Compañía.\n- Una política de “necesidad de saber” que gobierna la diseminación de información confidencial o interna dentro de la Compañía.\n- Nombramiento de Auditor Interno para asegurar que los sistemas y controles apropiados se mantengan e informen a la Junta Directiva de la Compañía.\n- Establecimiento del principio de “cuatro ojos” en la supervisión de las actividades de la Compañía.\n5.       Consentimiento del cliente\nAl celebrar un Acuerdo del Cliente con la Compañía para la provisión de Servicios de Inversión, el Cliente está dando su consentimiento para la aplicación de esta Política sobre él. Además, el Cliente consiente y autoriza a la Compañía a tratar con el Cliente de la manera que la Compañía considere apropiada, sin importar cualquier conflicto de intereses o la existencia de cualquier interés material en una Transacción, sin referencia previa al Cliente. En el caso de que la Compañía no pueda enfrentar una situación de conflicto de intereses, deberá revertir al Cliente.\n6.       Divulgación de información\nSi durante el curso de una relación comercial con un Cliente o grupo de Clientes, los arreglos / medidas organizativas o administrativas vigentes no son suficientes para evitar o gestionar un conflicto de intereses relacionado con ese Cliente o grupo de Clientes, la Compañía divulgará los conflictos de intereses antes de emprender nuevos negocios con el Cliente o grupo de Clientes.\n7.       Modificación de la Política e Información Adicional\nLa Compañía se reserva el derecho de revisar y / o enmendar su Política y arreglos siempre que lo considere apropiado sin previo aviso al Cliente. Si necesita más información y / o tiene alguna pregunta sobre conflictos de interés, envíe su solicitud y / o preguntas a support@oputrade.com\n\nAdvertencia de riesgo: Estos productos pueden no ser adecuados para todo el mundo por lo que antes de decidir el comercio de productos de la empresa debe considerar cuidadosamente su condición financiera y su nivel de experiencia. Busque asesoramiento independiente si es necesario. Especule solo con los fondos que usted puede permitirse el lujo de perder. Declaración de riesgos: el comercio de divisas implica un riesgo significativo. Le aconsejamos que lea nuestros términos y condiciones. Aunque el riesgo cuando se negocia Forex es fijo para cada negociación individual, las negociaciones son reales y es posible perder su inversión inicial, sobre todo si un comerciante decide colocar toda su inversión a una sola negociación real. Es altamente recomendable que los comerciantes elijan una estrategia apropiada de administración de dinero que limite el total de operaciones consecutivas o la inversión total pendiente. Descargo de responsabilidad: OPUTRADE es un proveedor de plataforma de comercio en línea. Somos uno de los principales agentes de cambio de la industria porque ofrecemos a nuestros inversores la capacidad de negociar los activos subyacentes en una plataforma precisa y de última generación de opciones de negociación de divisas. OPUTRADE aconseja a sus clientes leer atentamente nuestros términos y condiciones antes de abrir posiciones en nuestra plataforma. Las cotizaciones digitales de opciones que se muestran en la plataforma oputrade.com son tasas en las que la empresa está preparada para ofrecer opciones y, como resultado, pueden no corresponder necesariamente a las cotizaciones reales exactas del mercado. Trading OPUTRADE contiene riesgos, que pueden resultar en la pérdida parcial o total de una inversión. Hay riesgos asociados con la utilización de un sistema de comercio basado en Internet, incluyendo, pero no limitado a, el fallo de hardware, software y conexión a Internet. La empresa no se hace responsable de los fallos de comunicación o retrasos cuando el comercio a través de Internet. Cualquier opinión, noticia, investigación, análisis u otra información contenida en este sitio web se proporcionan como comentarios generales de mercado y no constituyen asesoramiento de inversión. La compañía no es responsable de ninguna pérdida o daño, incluyendo y sin limitación a, cualquier pérdida de beneficios que pueda surgir directa o indirectamente del uso de o confianza en dicha información.",
    "terms-text5": "oputrade.com brinda a sus clientes las herramientas necesarias para promover el crecimiento estable y moderado de la cartera. La familiaridad con el mercado Forex y los detalles de la negociación se consideran un requisito previo para invertir fondos. Las operaciones de cambio conllevan un riesgo considerable, similar a los esfuerzos comerciales en cualquier instrumento financiero en el mercado global. Se aconseja a los clientes que consideren los riesgos involucrados en la negociación de Forex, y la posibilidad de incurrir en una pérdida parcial o total de fondos como resultado de la inversión. oputrade.com no se hace responsable de las pérdidas sufridas por el cliente, como resultado de la negociación de Forex en la plataforma de negociación oputrade.com Operar en la plataforma oputrade.com requiere el cumplimiento total de las leyes reguladas y aplicadas en el país de residencia de cada cliente, así como a todas las reglas establecidas por oputrade.com, con el fin de garantizar una seguridad, entorno comercial seguro y legítimo. Consulte la sección legal y los términos y condiciones del sitio web oputrade.com para obtener descripciones detalladas de las reglas y regulaciones aplicadas a la negociación de Forex en la plataforma de negociación oputrade.com Los precios y las cotizaciones de los activos en la plataforma de negociación oputrade.com, representan las tasas a las que oputrade.com ofrece para la venta de cada Forex a sus clientes. Por lo tanto, podrían existir discrepancias entre los precios vistos en la plataforma de negociación de oputrade.com en relación con los niveles de mercado en vivo, y de ninguna manera estas discrepancias dan derecho al comerciante a una compensación más allá del éxito o el fracaso de una inversión. Toda la información publicada en el sitio web oputrade.com es precisa según nuestro conocimiento. Sin embargo, el mercado Forex implica un alto ritmo de cambio a las condiciones e influencias del mercado. No se pueden hacer garantías con respecto a la validez de los detalles escritos en el sitio web en el momento de la lectura de la información. En la máxima medida permitida por la ley aplicable, oputrade.com niega expresamente todas las garantías de cualquier tipo, expresas, implícitas o reglamentarias, relacionadas con el sitio, la plataforma, el contenido y los servicios, incluidas, entre otras, las garantías de título, comerciabilidad, aptitud para un propósito particular, no infracción de derechos de propiedad, curso de negociación o curso de ejecución. oputrade.com niega cualquier garantía, expresa o implícita con respecto a:\n\n(i)                  la seguridad, precisión, confiabilidad, puntualidad y rendimiento del sitio, contenido, plataforma y servicios; y\n(ii)                el sitio, la plataforma y los servicios serán ininterrumpidos, libres de errores o corregidos; y\n(iii)               con respecto al rendimiento o precisión, calidad, vigencia, integridad o utilidad de cualquier información provista por el sitio, la plataforma y los servicios.",
    "terms-text6": "Las políticas «Conozca a su cliente» (KYC), se están volviendo últimamente más importantes en todo el mundo, especialmente entre los bancos y otras instituciones financieras, con el fin de prevenir el robo de identidades, el blanqueo de capital, el fraude financiero y la actividad terrorista.\n\nOPUTRADE mantiene una tolerancia cero con las políticas de fraude, y toma todas las medidas posibles para prevenirlas. Toda actividad fraudulenta será documentada y todas las cuentas relacionadas serán cerradas inmediatamente. Todos los fondos en estas cuentas serán decomisados.\nPREVENCIÓN: Aspira a asegurar la integridad de todos los datos sensibles obtenidos, tales como su información de cuenta y las transacciones realizadas, utilizando una variedad de medidas de seguridad y controles de fraude. Al asegurar sus transacciones electrónicas se requiere que nos proporcione ciertos datos por su parte, incluyendo su método de depósito preferido.\n\nCUANDO USTED DEPOSITE FONDOS, REQUERIREMOS LOS SIGUIENTES DOCUMENTOS:\n-   Una copia de su documento de identidad vigente o pasaporte con la página de la firma\n-   Copias de sus tarjetas de crédito, utilizadas para hacer el depósito (la parte frontal con solo los últimos 4 dígitos visibles, y la parte trasera con el CVV cubierto)\n-     Una copia de una factura de servicios públicos reciente con su nombre y dirección\nSi tiene alguna pregunta, por favor, no dude en ponerse en contacto con atención al cliente en: support@oputrade.com\n\n¿CUÁNDO NECESITO PROPORCIONAR ESTOS DOCUMENTOS?\nApreciamos notablemente que se tome el tiempo necesario para proporcionarnos todos los documentos necesarios lo antes posible, con el fin de evitar retrasos en el proceso de sus transacciones. Requerimos la recepción de todos los documentos necesarios antes de realizar cualquier transacción en efectivo en su beneficio. Algunas circunstancias podrían requerir que solicitemos estos documentos antes de permitir otras actividades en su cuenta, como los depósitos o las operaciones. Por favor, tenga en cuenta que, si no recibimos los documentos necesarios en su registro, sus retiradas pendientes serán canceladas e ingresadas a su cuenta bursátil. Le notificaremos de tal evento a través de nuestro sistema.\n\n¿CÓMO PUEDO ENVIARLES ESTOS DOCUMENTOS?\nPor favor, escanee sus documentos, o tome una foto de alta calidad con una cámara digital, guarde las imágenes como archivos .jpg, y después, envíenoslos a través de correo electrónico a support@oputrade.com\n\n¿CÓMO SÉ QUE MIS DOCUMENTOS ESTÁN SEGUROS CON USTEDES?\nOPUTRADE mantiene la seguridad de la documentación como su mayor prioridad, y trata todos los documentos que recibe con el máximo respeto y confidencialidad. Todos los archivos obtenidos están completamente protegidos utilizando los mayores niveles posibles de encriptación en cada paso del proceso de evaluación. Le agradecemos su cooperación por ayudarnos a hacer de OPUTRADE un lugar seguro para operar.",
    "header-link-one": "Iniciar sesión",
    "header-link-two": "Regístrate",
    "header-link-three": "Nosotros",
    "header-link-four": "Mercado",
    "header-link-five": "Plataforma",
    "header-link-six": "Education",
    "header-link-seven": "FAQ",
    "header-link-eight": "Soporte",
    "footer-link-one": "Acerca de",
    "footer-link-two": "Educación",
    "footer-link-three": "Mercado",
    "footer-link-four": "Plataforma",
    "footer-link-five": "Legales",
    "footer-legend": "©Copyright OPUTRADE - Todos los derechos reservados. ADVERTENCIA SOBRE INVERSIÓN DE ALTO RIESGO: El trading por apalancamiento en contratos de divisas extranjeras, contratos por diferencia u otros productos fuera de intercambio conllevan un alto nivel de riesgo y puede que no sean adecuados para todos. Antes de realizar operaciones se recomienda encarecidamente leer y asegurarse de entender la relevante información y advertencias de riesgo que presentamos: Declaración de Divulgación de Riesgos. Existe un riesgo importante de poder perder toda su inversión inicial. Le aconsejamos considerar si es apropiado el hacer trading con productos con apalancamiento a la luz de sus propias circunstancias personales. Le recomendamos buscar asesoramiento financiero independiente y asegurarse de entender completamente todos los riesgos involucrados antes de negociar. Negociar mediante una plataforma en línea conlleva riesgos adicionales. Para más detalles, consulte los Términos y condiciones.",
    "not-found-title": "404: Página no encontrada",
    "not-found-text": "Acabas de llegar a una ruta que no existe."
}